{
    "Squid":[
        {
            "name": "Squid Add-on",
            "input": {"kv_mode": "none"},
            "source_type": "squid:access",
            "target_siem": "Elastic",
            "cim_data_model": {"Web": ""},
            "mappings": [
                {
                    "source": [
                        {
                            "field": "duration"
                        },
                        {
                            "field": "src_ip"
                        },
                        {
                            "field": "vendor_action"
                        },
                        {
                            "field": "status"
                        },
                        {
                            "field": "bytes_in"
                        },
                        {
                            "field": "http_method"
                        },
                        {
                            "field": "squid_calculated_error_url"
                        },
                        {
                            "field": "url"
                        },
                        {
                            "field": "user"
                        },
                        {
                            "field": "dest_status"
                        },
                        {
                            "field": "dest_ip"
                        },
                        {
                            "field": "http_content_type"
                        },
                        {
                            "field": "mime_headers"
                        }
                    ],
                    "target": [
                        {
                            "field": "target1"
                        },
                        {
                            "field": "target1"
                        },
                        {
                            "field": "target1"
                        },
                        {
                            "field": "target1"
                        },
                        {
                            "field": "target1"
                        },
                        {
                            "field": "target1"
                        },
                        {
                            "field": "target1"
                        },
                        {
                            "field": "target1"
                        },
                        {
                            "field": "target1"
                        },
                        {
                            "field": "target1"
                        },
                        {
                            "field": "target1"
                        },
                        {
                            "field": "target1"
                        },
                        {
                            "field": "target1"
                        }
                    ],
                    "block": "SOURCE_KEY = _raw\nREGEX = ^[^\\s]+\\s+(\\d+)\\s+([^\\s]+)\\s+([^\\/]+)\\/([^\\s]+)\\s+([^\\s]+)\\s+([^\\s]+)\\s+(?:(error:\\S+)|([^\\s]+))\\s+([^\\s]+)\\s+([^\\/]+)\\/([^\\s]+)\\s+([^\\[]+)(.*)?$\nFORMAT = duration::$1 src_ip::$2 vendor_action::$3 status::$4 bytes_in::$5 bytes_out::0 http_method::$6 squid_calculated_error_url::$7 url::$8 user::$9 dest_status::$10 dest_ip::$11 http_content_type::$12 mime_headers::$13 app::\"Squid\" vendor_product::\"Squid Proxy Server\" category::\"Proxy Server Traffic\"",
                    "mapping": {
                        "name": "report/transforms",
                        "type": "FUNCTION",
                        "values": {},
                        "arguments": [
                            {
                                "name": "_raw",
                                "type": "FIELD",
                                "arguments": [],
                                "values": {}
                            },
                            {
                                "name": "^[^\\s]+\\s+(\\d+)\\s+([^\\s]+)\\s+([^\\/]+)\\/([^\\s]+)\\s+([^\\s]+)\\s+([^\\s]+)\\s+(?:(error:\\S+)|([^\\s]+))\\s+([^\\s]+)\\s+([^\\/]+)\\/([^\\s]+)\\s+([^\\[]+)(.*)?$",
                                "type": "VALUE",
                                "arguments": [],
                                "values": {}
                            },
                            {
                                "name": "duration::$1 src_ip::$2 vendor_action::$3 status::$4 bytes_in::$5 bytes_out::0 http_method::$6 squid_calculated_error_url::$7 url::$8 user::$9 dest_status::$10 dest_ip::$11 http_content_type::$12 mime_headers::$13 app::\"Squid\" vendor_product::\"Squid Proxy Server\" category::\"Proxy Server Traffic\"",
                                "type": "VALUE",
                                "arguments": [],
                                "values": {}
                            }
                        ]
                    }
                },
                {
                    "source": [
                        {
                            "field": "dest_ip_tmp"
                        }
                    ],
                    "target": [
                        {
                            "field": ""
                        }
                    ],
                    "block": "SOURCE_KEY = url\nREGEX = (\\d{1,3}\\.\\d{1,3}\\.\\d{1,3}\\.\\d{1,3})\nFORMAT = dest_ip_tmp::$1",
                    "mapping": {
                        "name": "report/transforms",
                        "type": "FUNCTION",
                        "values": {},
                        "arguments": [
                            {
                                "name": "url",
                                "type": "FIELD",
                                "arguments": [],
                                "values": {}
                            },
                            {
                                "name": "(\\d{1,3}\\.\\d{1,3}\\.\\d{1,3}\\.\\d{1,3})",
                                "type": "VALUE",
                                "arguments": [],
                                "values": {}
                            },
                            {
                                "name": "dest_ip_tmp::$1",
                                "type": "VALUE",
                                "arguments": [],
                                "values": {}
                            }
                        ]
                    }
                },
                {
                    "source": [
                        {
                            "field": "dest_port"
                        }
                    ],
                    "target": [
                        {
                            "field": ""
                        }
                    ],
                    "block": "SOURCE_KEY = url\nREGEX = :(\\d+)\nFORMAT = dest_port::$1",
                    "mapping": {
                        "name": "report/transforms",
                        "type": "FUNCTION",
                        "values": {},
                        "arguments": [
                            {
                                "name": "url",
                                "type": "FIELD",
                                "arguments": [],
                                "values": {}
                            },
                            {
                                "name": ":(\\d+)",
                                "type": "VALUE",
                                "arguments": [],
                                "values": {}
                            },
                            {
                                "name": "dest_port::$1",
                                "type": "VALUE",
                                "arguments": [],
                                "values": {}
                            }
                        ]
                    }
                },
                {
                    "source": [
                        {
                            "field": "url_domain"
                        }
                    ],
                    "target": [
                        {
                            "field": ""
                        }
                    ],
                    "block": "SOURCE_KEY = url\nREGEX = ^(?:[^:]+:\\/\\/)?(?!(?:\\d{1,3}\\.\\d{1,3}\\.\\d{1,3}\\.\\d{1,3}|error:\\S+|\\S+:\\/\\/))([^:\\/]+)\nFORMAT = url_domain::$1",
                    "mapping": {
                        "name": "report/transforms",
                        "type": "FUNCTION",
                        "values": {},
                        "arguments": [
                            {
                                "name": "url",
                                "type": "FIELD",
                                "arguments": [],
                                "values": {}
                            },
                            {
                                "name": "^(?:[^:]+:\\/\\/)?(?!(?:\\d{1,3}\\.\\d{1,3}\\.\\d{1,3}\\.\\d{1,3}|error:\\S+|\\S+:\\/\\/))([^:\\/]+)",
                                "type": "VALUE",
                                "arguments": [],
                                "values": {}
                            },
                            {
                                "name": "url_domain::$1",
                                "type": "VALUE",
                                "arguments": [],
                                "values": {}
                            }
                        ]
                    }
                },
                {
                    "source": [
                        {
                            "field": "url_length"
                        }
                    ],
                    "target": [
                        {
                            "field": ""
                        }
                    ],
                    "block": {
                        "splunk": "EVAL-url_length = len(url)"
                    },
                    "mapping": {
                        "type": "FUNCTION",
                        "name": "len",
                        "values": {},
                        "argument": [
                            {
                                "type": "FIELD",
                                "name": "url",
                                "values": {},
                                "argument": []
                            }
                        ]
                    }
                },
                {
                    "source": [
                        {
                            "field": "http_content_type"
                        }
                    ],
                    "target": [
                        {
                            "field": ""
                        }
                    ],
                    "block": {
                        "splunk": "EVAL-http_content_type = if(http_content_type==\"-\" OR http_content_type=\":\", null , http_content_type)"
                    },
                    "mapping": {
                        "type": "FUNCTION",
                        "name": "if",
                        "values": {},
                        "argument": [
                            {
                                "type": "FUNCTION",
                                "name": "OR",
                                "values": {},
                                "argument": [
                                    {
                                        "type": "FUNCTION",
                                        "name": "deq",
                                        "values": {},
                                        "argument": [
                                            {
                                                "type": "FIELD",
                                                "name": "http_content_type",
                                                "values": {},
                                                "argument": []
                                            },
                                            {
                                                "type": "VALUE",
                                                "name": "\"-\"",
                                                "values": {},
                                                "argument": []
                                            }
                                        ]
                                    },
                                    {
                                        "type": "EQ",
                                        "name": "assign",
                                        "values": {},
                                        "argument": [
                                            {
                                                "type": "FIELD",
                                                "name": "http_content_type",
                                                "values": {},
                                                "argument": []
                                            },
                                            {
                                                "type": "VALUE",
                                                "name": "\":\"",
                                                "values": {},
                                                "argument": []
                                            }
                                        ]
                                    }
                                ]
                            },
                            {
                                "type": "FIELD",
                                "name": "null",
                                "values": {},
                                "argument": []
                            },
                            {
                                "type": "FIELD",
                                "name": "http_content_type",
                                "values": {},
                                "argument": []
                            }
                        ]
                    }
                },
                {
                    "source": [
                        {
                            "field": "user"
                        }
                    ],
                    "target": [
                        {
                            "field": ""
                        }
                    ],
                    "block": {
                        "splunk": "EVAL-user = if(user==\"-\", null, user)"
                    },
                    "mapping": {
                        "type": "FUNCTION",
                        "name": "if",
                        "values": {},
                        "argument": [
                            {
                                "type": "FUNCTION",
                                "name": "deq",
                                "values": {},
                                "argument": [
                                    {
                                        "type": "FIELD",
                                        "name": "user",
                                        "values": {},
                                        "argument": []
                                    },
                                    {
                                        "type": "VALUE",
                                        "name": "\"-\"",
                                        "values": {},
                                        "argument": []
                                    }
                                ]
                            },
                            {
                                "type": "FIELD",
                                "name": "null",
                                "values": {},
                                "argument": []
                            },
                            {
                                "type": "FIELD",
                                "name": "user",
                                "values": {},
                                "argument": []
                            }
                        ]
                    }
                },
                {
                    "source": [
                        {
                            "field": "bytes"
                        }
                    ],
                    "target": [
                        {
                            "field": ""
                        }
                    ],
                    "block": {
                        "splunk": "EVAL-bytes = bytes_in + bytes_out"
                    },
                    "mapping": {
                        "type": "FUNCTION",
                        "name": "plus",
                        "values": {},
                        "argument": [
                            {
                                "type": "FIELD",
                                "name": "bytes_in",
                                "values": {},
                                "argument": []
                            },
                            {
                                "type": "FIELD",
                                "name": "bytes_out",
                                "values": {},
                                "argument": []
                            }
                        ]
                    }
                },
                {
                    "source": [
                        {
                            "field": "dest_ip"
                        }
                    ],
                    "target": [
                        {
                            "field": ""
                        }
                    ],
                    "block": {
                        "splunk": "EVAL-dest_ip = if(dest_ip==\"-\", dest_ip_tmp, dest_ip)"
                    },
                    "mapping": {
                        "type": "FUNCTION",
                        "name": "if",
                        "values": {},
                        "argument": [
                            {
                                "type": "FUNCTION",
                                "name": "deq",
                                "values": {},
                                "argument": [
                                    {
                                        "type": "FIELD",
                                        "name": "dest_ip",
                                        "values": {},
                                        "argument": []
                                    },
                                    {
                                        "type": "VALUE",
                                        "name": "\"-\"",
                                        "values": {},
                                        "argument": []
                                    }
                                ]
                            },
                            {
                                "type": "FIELD",
                                "name": "dest_ip_tmp",
                                "values": {},
                                "argument": []
                            },
                            {
                                "type": "FIELD",
                                "name": "dest_ip",
                                "values": {},
                                "argument": []
                            }
                        ]
                    }
                },
                {
                    "source": [
                        {
                            "field": "dest"
                        }
                    ],
                    "target": [
                        {
                            "field": ""
                        }
                    ],
                    "block": {
                        "splunk": "EVAL-dest = coalesce(url, if(dest_ip==\"-\", null, dest_ip))"
                    },
                    "mapping": {
                        "type": "FUNCTION",
                        "name": "coalesce",
                        "values": {},
                        "argument": [
                            {
                                "type": "FIELD",
                                "name": "url",
                                "values": {},
                                "argument": []
                            },
                            {
                                "type": "FUNCTION",
                                "name": "if",
                                "values": {},
                                "argument": [
                                    {
                                        "type": "FUNCTION",
                                        "name": "deq",
                                        "values": {},
                                        "argument": [
                                            {
                                                "type": "FIELD",
                                                "name": "dest_ip",
                                                "values": {},
                                                "argument": []
                                            },
                                            {
                                                "type": "VALUE",
                                                "name": "\"-\"",
                                                "values": {},
                                                "argument": []
                                            }
                                        ]
                                    },
                                    {
                                        "type": "FIELD",
                                        "name": "null",
                                        "values": {},
                                        "argument": []
                                    },
                                    {
                                        "type": "FIELD",
                                        "name": "dest_ip",
                                        "values": {},
                                        "argument": []
                                    }
                                ]
                            }
                        ]
                    }
                },
                {
                    "source": [
                        {
                            "field": "src_ip"
                        }
                    ],
                    "target": [
                        {
                            "field": ""
                        }
                    ],
                    "block": {
                        "splunk": "EVAL-src_ip = if(src_ip==\"-\", null, src_ip)"
                    },
                    "mapping": {
                        "type": "FUNCTION",
                        "name": "if",
                        "values": {},
                        "argument": [
                            {
                                "type": "FUNCTION",
                                "name": "deq",
                                "values": {},
                                "argument": [
                                    {
                                        "type": "FIELD",
                                        "name": "src_ip",
                                        "values": {},
                                        "argument": []
                                    },
                                    {
                                        "type": "VALUE",
                                        "name": "\"-\"",
                                        "values": {},
                                        "argument": []
                                    }
                                ]
                            },
                            {
                                "type": "FIELD",
                                "name": "null",
                                "values": {},
                                "argument": []
                            },
                            {
                                "type": "FIELD",
                                "name": "src_ip",
                                "values": {},
                                "argument": []
                            }
                        ]
                    }
                },
                {
                    "source": [
                        {
                            "field": "src"
                        }
                    ],
                    "target": [
                        {
                            "field": ""
                        }
                    ],
                    "block": {
                        "splunk": "EVAL-src = if(src_ip==\"-\", null, src_ip)"
                    },
                    "mapping": {
                        "type": "FUNCTION",
                        "name": "if",
                        "values": {},
                        "argument": [
                            {
                                "type": "FUNCTION",
                                "name": "deq",
                                "values": {},
                                "argument": [
                                    {
                                        "type": "FIELD",
                                        "name": "src_ip",
                                        "values": {},
                                        "argument": []
                                    },
                                    {
                                        "type": "VALUE",
                                        "name": "\"-\"",
                                        "values": {},
                                        "argument": []
                                    }
                                ]
                            },
                            {
                                "type": "FIELD",
                                "name": "null",
                                "values": {},
                                "argument": []
                            },
                            {
                                "type": "FIELD",
                                "name": "src_ip",
                                "values": {},
                                "argument": []
                            }
                        ]
                    }
                },
                {
                    "source": [
                        {
                            "field": "action"
                        }
                    ],
                    "target": [
                        {
                            "field": ""
                        }
                    ],
                    "block": {
                        "splunk": "LOOKUP-lookup-3_look_up_extract = squid_actions_lookup vendor_action OUTPUT action"
                    },
                    "mapping": {
                        "name": "lookup",
                        "type": "FUNCTION",
                        "arguments": [],
                        "values": {
                            "input_fields": [
                                "vendor_action"
                            ],
                            "output_fields": [
                                "action"
                            ],
                            "key_value_map": [
                                {
                                    "vendor_action": "TCP_HIT",
                                    "action": "allowed"
                                },
                                {
                                    "vendor_action": "TCP_MISS",
                                    "action": "allowed"
                                },
                                {
                                    "vendor_action": "TCP_REFRESH_HIT",
                                    "action": "allowed"
                                },
                                {
                                    "vendor_action": "TCP_REF_FAIL_HIT",
                                    "action": "allowed"
                                },
                                {
                                    "vendor_action": "TCP_REFRESH_FAIL_HIT",
                                    "action": "allowed"
                                },
                                {
                                    "vendor_action": "TCP_REFRESH_MISS",
                                    "action": "allowed"
                                },
                                {
                                    "vendor_action": "TCP_REFRESH_MODIFIED",
                                    "action": "allowed"
                                },
                                {
                                    "vendor_action": "TCP_REFRESH_UNMODIFIED",
                                    "action": "allowed"
                                },
                                {
                                    "vendor_action": "TCP_CLIENT_REFRESH",
                                    "action": "allowed"
                                },
                                {
                                    "vendor_action": "TCP_IMS_HIT",
                                    "action": "allowed"
                                },
                                {
                                    "vendor_action": "TCP_IMS_MISS",
                                    "action": "allowed"
                                },
                                {
                                    "vendor_action": "TCP_SWAPFAIL",
                                    "action": "blocked"
                                },
                                {
                                    "vendor_action": "TCP_DENIED",
                                    "action": "blocked"
                                },
                                {
                                    "vendor_action": "TCP_TUNNEL",
                                    "action": "allowed"
                                },
                                {
                                    "vendor_action": "TCP_TUNNEL_ABORTED",
                                    "action": "allowed"
                                },
                                {
                                    "vendor_action": "UDP_HIT",
                                    "action": "allowed"
                                },
                                {
                                    "vendor_action": "UDP_HIT_OBJ",
                                    "action": "allowed"
                                },
                                {
                                    "vendor_action": "UDP_MISS",
                                    "action": "allowed"
                                },
                                {
                                    "vendor_action": "UDP_DENIED",
                                    "action": "blocked"
                                },
                                {
                                    "vendor_action": "UDP_INVALID",
                                    "action": "blocked"
                                },
                                {
                                    "vendor_action": "UDP_RELOADING",
                                    "action": "allowed"
                                },
                                {
                                    "vendor_action": "NONE",
                                    "action": "NONE"
                                }
                            ]
                        }
                    }
                },
                {
                    "source": [
                        {
                            "field": "status_description"
                        }
                    ],
                    "target": [
                        {
                            "field": ""
                        }
                    ],
                    "block": {
                        "splunk": "LOOKUP-lookup-4_look_up_extract = squid_httpstatus_lookup status OUTPUT status_description"
                    },
                    "mapping": {
                        "name": "lookup",
                        "type": "FUNCTION",
                        "arguments": [],
                        "values": {
                            "input_fields": [
                                "status"
                            ],
                            "output_fields": [
                                "status_description"
                            ],
                            "key_value_map": [
                                {
                                    "status": "0",
                                    "status_description": "Squid: No Response Received"
                                },
                                {
                                    "status": "000",
                                    "status_description": "Squid: No Response Received"
                                },
                                {
                                    "status": "100",
                                    "status_description": "Continue"
                                },
                                {
                                    "status": "101",
                                    "status_description": "Switching Protocols"
                                },
                                {
                                    "status": "102",
                                    "status_description": "Processing"
                                },
                                {
                                    "status": "200",
                                    "status_description": "OK"
                                },
                                {
                                    "status": "201",
                                    "status_description": "Created"
                                },
                                {
                                    "status": "202",
                                    "status_description": "Accepted"
                                },
                                {
                                    "status": "203",
                                    "status_description": "Non-Authoritative Information"
                                },
                                {
                                    "status": "204",
                                    "status_description": "No Content"
                                },
                                {
                                    "status": "205",
                                    "status_description": "Reset Content"
                                },
                                {
                                    "status": "206",
                                    "status_description": "Partial Content"
                                },
                                {
                                    "status": "207",
                                    "status_description": "Multi Status"
                                },
                                {
                                    "status": "300",
                                    "status_description": "Multiple Choices"
                                },
                                {
                                    "status": "301",
                                    "status_description": "Moved Permanently"
                                },
                                {
                                    "status": "302",
                                    "status_description": "Moved Temporarily"
                                },
                                {
                                    "status": "303",
                                    "status_description": "See Other"
                                },
                                {
                                    "status": "304",
                                    "status_description": "Not Modified"
                                },
                                {
                                    "status": "305",
                                    "status_description": "Use Proxy"
                                },
                                {
                                    "status": "307",
                                    "status_description": "Temporary Redirect"
                                },
                                {
                                    "status": "400",
                                    "status_description": "Bad Request"
                                },
                                {
                                    "status": "401",
                                    "status_description": "Unauthorized"
                                },
                                {
                                    "status": "402",
                                    "status_description": "Payment Required"
                                },
                                {
                                    "status": "403",
                                    "status_description": "Forbidden"
                                },
                                {
                                    "status": "404",
                                    "status_description": "Not Found"
                                },
                                {
                                    "status": "405",
                                    "status_description": "Method Not Allowed"
                                },
                                {
                                    "status": "406",
                                    "status_description": "Not Acceptable"
                                },
                                {
                                    "status": "407",
                                    "status_description": "Proxy Authentication Required"
                                },
                                {
                                    "status": "408",
                                    "status_description": "Request Timeout"
                                },
                                {
                                    "status": "409",
                                    "status_description": "Conflict"
                                },
                                {
                                    "status": "410",
                                    "status_description": "Gone"
                                },
                                {
                                    "status": "411",
                                    "status_description": "Length Required"
                                },
                                {
                                    "status": "412",
                                    "status_description": "Precondition Failed"
                                },
                                {
                                    "status": "413",
                                    "status_description": "Request Entity Too Large"
                                },
                                {
                                    "status": "414",
                                    "status_description": "Request URI Too Large"
                                },
                                {
                                    "status": "415",
                                    "status_description": "Unsupported Media Type"
                                },
                                {
                                    "status": "416",
                                    "status_description": "Request Range Not Satisfiable"
                                },
                                {
                                    "status": "417",
                                    "status_description": "Expectation Failed"
                                },
                                {
                                    "status": "422",
                                    "status_description": "Unprocessable Entity"
                                },
                                {
                                    "status": "423",
                                    "status_description": "Locked"
                                },
                                {
                                    "status": "424",
                                    "status_description": "Failed Dependency"
                                },
                                {
                                    "status": "433",
                                    "status_description": "Unprocessable Entity"
                                },
                                {
                                    "status": "500",
                                    "status_description": "Internal Server Error"
                                },
                                {
                                    "status": "501",
                                    "status_description": "Not Implemented"
                                },
                                {
                                    "status": "502",
                                    "status_description": "Bad Gateway"
                                },
                                {
                                    "status": "503",
                                    "status_description": "Service Unavailable"
                                },
                                {
                                    "status": "504",
                                    "status_description": "Gateway Timeout"
                                },
                                {
                                    "status": "505",
                                    "status_description": "HTTP Version Not Supported"
                                },
                                {
                                    "status": "507",
                                    "status_description": "Insufficient Storage"
                                },
                                {
                                    "status": "600",
                                    "status_description": "Squid: header parsing error"
                                },
                                {
                                    "status": "601",
                                    "status_description": "Squid: header size overflow detected while parsing"
                                },
                                {
                                    "status": "601",
                                    "status_description": "roundcube: software configuration error"
                                },
                                {
                                    "status": "603",
                                    "status_description": "roundcube: invalid authorization"
                                }
                            ]
                        }
                    }
                }
            ]
        },
        {
            "name": "Squid Add-on",
            "input": {"kv_mode": "auto"},
            "source_type": "squid:access:recommended",
            "target_siem": "Elastic",
            "cim_data_model": {"Web": ""},
            "mappings": [
                {
                    "source": [
                        {
                            "field": "src"
                        }
                    ],
                    "target": [
                        {
                            "field": ""
                        }
                    ],
                    "block": {
                        "splunk": "FIELDALIAS-fieldalias-src = src_ip as src"
                    },
                    "mapping": {
                        "name": "fieldalias",
                        "type": "FUNCTION",
                        "arguments": [],
                        "values": {
                            "src": "src_ip"
                        }
                    }
                },
                {
                    "source": [
                        {
                            "field": "url_domain"
                        }
                    ],
                    "target": [
                        {
                            "field": ""
                        }
                    ],
                    "block": "SOURCE_KEY = _raw\nREGEX = url=\"(?:[^:]+:\\/\\/)?(?!(?:\\d{1,3}\\.\\d{1,3}\\.\\d{1,3}\\.\\d{1,3}|error:\\S+|\\S+:\\/\\/))([^:\\/]+)\nFORMAT = url_domain::$1",
                    "mapping": {
                        "name": "report/transforms",
                        "type": "FUNCTION",
                        "values": {},
                        "arguments": [
                            {
                                "name": "_raw",
                                "type": "FIELD",
                                "arguments": [],
                                "values": {}
                            },
                            {
                                "name": "url=\"(?:[^:]+:\\/\\/)?(?!(?:\\d{1,3}\\.\\d{1,3}\\.\\d{1,3}\\.\\d{1,3}|error:\\S+|\\S+:\\/\\/))([^:\\/]+)",
                                "type": "VALUE",
                                "arguments": [],
                                "values": {}
                            },
                            {
                                "name": "url_domain::$1",
                                "type": "VALUE",
                                "arguments": [],
                                "values": {}
                            }
                        ]
                    }
                },
                {
                    "source": [
                        {
                            "field": "http_referrer_domain"
                        }
                    ],
                    "target": [
                        {
                            "field": ""
                        }
                    ],
                    "block": "SOURCE_KEY = _raw\nREGEX = http_referrer=\"(?:[^:]+:\\/\\/)?(?!(?:\\d{1,3}\\.\\d{1,3}\\.\\d{1,3}\\.\\d{1,3}|\\S+:\\/\\/))([^:\\/]+)\nFORMAT = http_referrer_domain::$1",
                    "mapping": {
                        "name": "report/transforms",
                        "type": "FUNCTION",
                        "values": {},
                        "arguments": [
                            {
                                "name": "_raw",
                                "type": "FIELD",
                                "arguments": [],
                                "values": {}
                            },
                            {
                                "name": "http_referrer=\"(?:[^:]+:\\/\\/)?(?!(?:\\d{1,3}\\.\\d{1,3}\\.\\d{1,3}\\.\\d{1,3}|\\S+:\\/\\/))([^:\\/]+)",
                                "type": "VALUE",
                                "arguments": [],
                                "values": {}
                            },
                            {
                                "name": "http_referrer_domain::$1",
                                "type": "VALUE",
                                "arguments": [],
                                "values": {}
                            }
                        ]
                    }
                },
                {
                    "source": [
                        {
                            "field": "app"
                        }
                    ],
                    "target": [
                        {
                            "field": ""
                        }
                    ],
                    "block": {
                        "splunk": "EVAL-app = \"Squid\""
                    },
                    "mapping": {
                        "type": "VALUE",
                        "name": "\"Squid\"",
                        "values": {},
                        "argument": []
                    }
                },
                {
                    "source": [
                        {
                            "field": "vendor_product"
                        }
                    ],
                    "target": [
                        {
                            "field": ""
                        }
                    ],
                    "block": {
                        "splunk": "EVAL-vendor_product = \"Squid Proxy Server\""
                    },
                    "mapping": {
                        "type": "VALUE",
                        "name": "\"Squid Proxy Server\"",
                        "values": {},
                        "argument": []
                    }
                },
                {
                    "source": [
                        {
                            "field": "squid_calculated_error_url"
                        }
                    ],
                    "target": [
                        {
                            "field": ""
                        }
                    ],
                    "block": {
                        "splunk": "EVAL-squid_calculated_error_url = if(match(url,\"^error:\"), url, null)"
                    },
                    "mapping": {
                        "type": "FUNCTION",
                        "name": "if",
                        "values": {},
                        "argument": [
                            {
                                "type": "FUNCTION",
                                "name": "match",
                                "values": {},
                                "argument": [
                                    {
                                        "type": "FIELD",
                                        "name": "url",
                                        "values": {},
                                        "argument": []
                                    },
                                    {
                                        "type": "VALUE",
                                        "name": "\"^error:\"",
                                        "values": {},
                                        "argument": []
                                    }
                                ]
                            },
                            {
                                "type": "FIELD",
                                "name": "url",
                                "values": {},
                                "argument": []
                            },
                            {
                                "type": "FIELD",
                                "name": "null",
                                "values": {},
                                "argument": []
                            }
                        ]
                    }
                },
                {
                    "source": [
                        {
                            "field": "url"
                        }
                    ],
                    "target": [
                        {
                            "field": ""
                        }
                    ],
                    "block": {
                        "splunk": "EVAL-url = if(match(url,\"^error:\"), null, url)"
                    },
                    "mapping": {
                        "type": "FUNCTION",
                        "name": "if",
                        "values": {},
                        "argument": [
                            {
                                "type": "FUNCTION",
                                "name": "match",
                                "values": {},
                                "argument": [
                                    {
                                        "type": "FIELD",
                                        "name": "url",
                                        "values": {},
                                        "argument": []
                                    },
                                    {
                                        "type": "VALUE",
                                        "name": "\"^error:\"",
                                        "values": {},
                                        "argument": []
                                    }
                                ]
                            },
                            {
                                "type": "FIELD",
                                "name": "null",
                                "values": {},
                                "argument": []
                            },
                            {
                                "type": "FIELD",
                                "name": "url",
                                "values": {},
                                "argument": []
                            }
                        ]
                    }
                },
                {
                    "source": [
                        {
                            "field": "url_length"
                        }
                    ],
                    "target": [
                        {
                            "field": ""
                        }
                    ],
                    "block": {
                        "splunk": "EVAL-url_length = if(match(url,\"^error:\"), null, len(url))"
                    },
                    "mapping": {
                        "type": "FUNCTION",
                        "name": "if",
                        "values": {},
                        "argument": [
                            {
                                "type": "FUNCTION",
                                "name": "match",
                                "values": {},
                                "argument": [
                                    {
                                        "type": "FIELD",
                                        "name": "url",
                                        "values": {},
                                        "argument": []
                                    },
                                    {
                                        "type": "VALUE",
                                        "name": "\"^error:\"",
                                        "values": {},
                                        "argument": []
                                    }
                                ]
                            },
                            {
                                "type": "FIELD",
                                "name": "null",
                                "values": {},
                                "argument": []
                            },
                            {
                                "type": "FUNCTION",
                                "name": "len",
                                "values": {},
                                "argument": [
                                    {
                                        "type": "FIELD",
                                        "name": "url",
                                        "values": {},
                                        "argument": []
                                    }
                                ]
                            }
                        ]
                    }
                },
                {
                    "source": [
                        {
                            "field": "http_user_agent_length"
                        }
                    ],
                    "target": [
                        {
                            "field": ""
                        }
                    ],
                    "block": {
                        "splunk": "EVAL-http_user_agent_length = len(http_user_agent)"
                    },
                    "mapping": {
                        "type": "FUNCTION",
                        "name": "len",
                        "values": {},
                        "argument": [
                            {
                                "type": "FIELD",
                                "name": "http_user_agent",
                                "values": {},
                                "argument": []
                            }
                        ]
                    }
                },
                {
                    "source": [
                        {
                            "field": "http_content_type"
                        }
                    ],
                    "target": [
                        {
                            "field": ""
                        }
                    ],
                    "block": {
                        "splunk": "EVAL-http_content_type = if(http_content_type=\":\", null, http_content_type)"
                    },
                    "mapping": {
                        "type": "FUNCTION",
                        "name": "if",
                        "values": {},
                        "argument": [
                            {
                                "type": "EQ",
                                "name": "assign",
                                "values": {},
                                "argument": [
                                    {
                                        "type": "FIELD",
                                        "name": "http_content_type",
                                        "values": {},
                                        "argument": []
                                    },
                                    {
                                        "type": "VALUE",
                                        "name": "\":\"",
                                        "values": {},
                                        "argument": []
                                    }
                                ]
                            },
                            {
                                "type": "FIELD",
                                "name": "null",
                                "values": {},
                                "argument": []
                            },
                            {
                                "type": "FIELD",
                                "name": "http_content_type",
                                "values": {},
                                "argument": []
                            }
                        ]
                    }
                },
                {
                    "source": [
                        {
                            "field": "dest"
                        }
                    ],
                    "target": [
                        {
                            "field": ""
                        }
                    ],
                    "block": {
                        "splunk": "EVAL-dest = if(match(url,\"^error:\"), dest_ip, coalesce(url, dest_ip))"
                    },
                    "mapping": {
                        "type": "FUNCTION",
                        "name": "if",
                        "values": {},
                        "argument": [
                            {
                                "type": "FUNCTION",
                                "name": "match",
                                "values": {},
                                "argument": [
                                    {
                                        "type": "FIELD",
                                        "name": "url",
                                        "values": {},
                                        "argument": []
                                    },
                                    {
                                        "type": "VALUE",
                                        "name": "\"^error:\"",
                                        "values": {},
                                        "argument": []
                                    }
                                ]
                            },
                            {
                                "type": "FIELD",
                                "name": "dest_ip",
                                "values": {},
                                "argument": []
                            },
                            {
                                "type": "FUNCTION",
                                "name": "coalesce",
                                "values": {},
                                "argument": [
                                    {
                                        "type": "FIELD",
                                        "name": "url",
                                        "values": {},
                                        "argument": []
                                    },
                                    {
                                        "type": "FIELD",
                                        "name": "dest_ip",
                                        "values": {},
                                        "argument": []
                                    }
                                ]
                            }
                        ]
                    }
                },
                {
                    "source": [
                        {
                            "field": "category"
                        }
                    ],
                    "target": [
                        {
                            "field": ""
                        }
                    ],
                    "block": {
                        "splunk": "EVAL-category = \"Proxy Server Traffic\""
                    },
                    "mapping": {
                        "type": "VALUE",
                        "name": "\"Proxy Server Traffic\"",
                        "values": {},
                        "argument": []
                    }
                },
                {
                    "source": [
                        {
                            "field": "action"
                        }
                    ],
                    "target": [
                        {
                            "field": ""
                        }
                    ],
                    "block": {
                        "splunk": "LOOKUP-lookup-action = squid_actions_lookup vendor_action OUTPUT action"
                    },
                    "mapping": {
                        "name": "lookup",
                        "type": "FUNCTION",
                        "arguments": [],
                        "values": {
                            "input_fields": [
                                "vendor_action"
                            ],
                            "output_fields": [
                                "action"
                            ],
                            "key_value_map": [
                                {
                                    "vendor_action": "TCP_HIT",
                                    "action": "allowed"
                                },
                                {
                                    "vendor_action": "TCP_MISS",
                                    "action": "allowed"
                                },
                                {
                                    "vendor_action": "TCP_REFRESH_HIT",
                                    "action": "allowed"
                                },
                                {
                                    "vendor_action": "TCP_REF_FAIL_HIT",
                                    "action": "allowed"
                                },
                                {
                                    "vendor_action": "TCP_REFRESH_FAIL_HIT",
                                    "action": "allowed"
                                },
                                {
                                    "vendor_action": "TCP_REFRESH_MISS",
                                    "action": "allowed"
                                },
                                {
                                    "vendor_action": "TCP_REFRESH_MODIFIED",
                                    "action": "allowed"
                                },
                                {
                                    "vendor_action": "TCP_REFRESH_UNMODIFIED",
                                    "action": "allowed"
                                },
                                {
                                    "vendor_action": "TCP_CLIENT_REFRESH",
                                    "action": "allowed"
                                },
                                {
                                    "vendor_action": "TCP_IMS_HIT",
                                    "action": "allowed"
                                },
                                {
                                    "vendor_action": "TCP_IMS_MISS",
                                    "action": "allowed"
                                },
                                {
                                    "vendor_action": "TCP_SWAPFAIL",
                                    "action": "blocked"
                                },
                                {
                                    "vendor_action": "TCP_DENIED",
                                    "action": "blocked"
                                },
                                {
                                    "vendor_action": "TCP_TUNNEL",
                                    "action": "allowed"
                                },
                                {
                                    "vendor_action": "TCP_TUNNEL_ABORTED",
                                    "action": "allowed"
                                },
                                {
                                    "vendor_action": "UDP_HIT",
                                    "action": "allowed"
                                },
                                {
                                    "vendor_action": "UDP_HIT_OBJ",
                                    "action": "allowed"
                                },
                                {
                                    "vendor_action": "UDP_MISS",
                                    "action": "allowed"
                                },
                                {
                                    "vendor_action": "UDP_DENIED",
                                    "action": "blocked"
                                },
                                {
                                    "vendor_action": "UDP_INVALID",
                                    "action": "blocked"
                                },
                                {
                                    "vendor_action": "UDP_RELOADING",
                                    "action": "allowed"
                                },
                                {
                                    "vendor_action": "NONE",
                                    "action": "NONE"
                                }
                            ]
                        }
                    }
                },
                {
                    "source": [
                        {
                            "field": "status_description"
                        }
                    ],
                    "target": [
                        {
                            "field": ""
                        }
                    ],
                    "block": {
                        "splunk": "LOOKUP-lookup-description = squid_httpstatus_lookup status OUTPUT status_description"
                    },
                    "mapping": {
                        "name": "lookup",
                        "type": "FUNCTION",
                        "arguments": [],
                        "values": {
                            "input_fields": [
                                "status"
                            ],
                            "output_fields": [
                                "status_description"
                            ],
                            "key_value_map": [
                                {
                                    "status": "0",
                                    "status_description": "Squid: No Response Received"
                                },
                                {
                                    "status": "000",
                                    "status_description": "Squid: No Response Received"
                                },
                                {
                                    "status": "100",
                                    "status_description": "Continue"
                                },
                                {
                                    "status": "101",
                                    "status_description": "Switching Protocols"
                                },
                                {
                                    "status": "102",
                                    "status_description": "Processing"
                                },
                                {
                                    "status": "200",
                                    "status_description": "OK"
                                },
                                {
                                    "status": "201",
                                    "status_description": "Created"
                                },
                                {
                                    "status": "202",
                                    "status_description": "Accepted"
                                },
                                {
                                    "status": "203",
                                    "status_description": "Non-Authoritative Information"
                                },
                                {
                                    "status": "204",
                                    "status_description": "No Content"
                                },
                                {
                                    "status": "205",
                                    "status_description": "Reset Content"
                                },
                                {
                                    "status": "206",
                                    "status_description": "Partial Content"
                                },
                                {
                                    "status": "207",
                                    "status_description": "Multi Status"
                                },
                                {
                                    "status": "300",
                                    "status_description": "Multiple Choices"
                                },
                                {
                                    "status": "301",
                                    "status_description": "Moved Permanently"
                                },
                                {
                                    "status": "302",
                                    "status_description": "Moved Temporarily"
                                },
                                {
                                    "status": "303",
                                    "status_description": "See Other"
                                },
                                {
                                    "status": "304",
                                    "status_description": "Not Modified"
                                },
                                {
                                    "status": "305",
                                    "status_description": "Use Proxy"
                                },
                                {
                                    "status": "307",
                                    "status_description": "Temporary Redirect"
                                },
                                {
                                    "status": "400",
                                    "status_description": "Bad Request"
                                },
                                {
                                    "status": "401",
                                    "status_description": "Unauthorized"
                                },
                                {
                                    "status": "402",
                                    "status_description": "Payment Required"
                                },
                                {
                                    "status": "403",
                                    "status_description": "Forbidden"
                                },
                                {
                                    "status": "404",
                                    "status_description": "Not Found"
                                },
                                {
                                    "status": "405",
                                    "status_description": "Method Not Allowed"
                                },
                                {
                                    "status": "406",
                                    "status_description": "Not Acceptable"
                                },
                                {
                                    "status": "407",
                                    "status_description": "Proxy Authentication Required"
                                },
                                {
                                    "status": "408",
                                    "status_description": "Request Timeout"
                                },
                                {
                                    "status": "409",
                                    "status_description": "Conflict"
                                },
                                {
                                    "status": "410",
                                    "status_description": "Gone"
                                },
                                {
                                    "status": "411",
                                    "status_description": "Length Required"
                                },
                                {
                                    "status": "412",
                                    "status_description": "Precondition Failed"
                                },
                                {
                                    "status": "413",
                                    "status_description": "Request Entity Too Large"
                                },
                                {
                                    "status": "414",
                                    "status_description": "Request URI Too Large"
                                },
                                {
                                    "status": "415",
                                    "status_description": "Unsupported Media Type"
                                },
                                {
                                    "status": "416",
                                    "status_description": "Request Range Not Satisfiable"
                                },
                                {
                                    "status": "417",
                                    "status_description": "Expectation Failed"
                                },
                                {
                                    "status": "422",
                                    "status_description": "Unprocessable Entity"
                                },
                                {
                                    "status": "423",
                                    "status_description": "Locked"
                                },
                                {
                                    "status": "424",
                                    "status_description": "Failed Dependency"
                                },
                                {
                                    "status": "433",
                                    "status_description": "Unprocessable Entity"
                                },
                                {
                                    "status": "500",
                                    "status_description": "Internal Server Error"
                                },
                                {
                                    "status": "501",
                                    "status_description": "Not Implemented"
                                },
                                {
                                    "status": "502",
                                    "status_description": "Bad Gateway"
                                },
                                {
                                    "status": "503",
                                    "status_description": "Service Unavailable"
                                },
                                {
                                    "status": "504",
                                    "status_description": "Gateway Timeout"
                                },
                                {
                                    "status": "505",
                                    "status_description": "HTTP Version Not Supported"
                                },
                                {
                                    "status": "507",
                                    "status_description": "Insufficient Storage"
                                },
                                {
                                    "status": "600",
                                    "status_description": "Squid: header parsing error"
                                },
                                {
                                    "status": "601",
                                    "status_description": "Squid: header size overflow detected while parsing"
                                },
                                {
                                    "status": "601",
                                    "status_description": "roundcube: software configuration error"
                                },
                                {
                                    "status": "603",
                                    "status_description": "roundcube: invalid authorization"
                                }
                            ]
                        }
                    }
                }
            ]
        }
    ]
}

